Data,Infectado,Hospitalizado,Internados UCI,Mortes
2021-04-04,26134,517,117,4
2021-04-05,25966,536,112,6
2021-04-06,25944,504,113,2
2021-04-07,25847,488,116,3
2021-04-08,25839,495,122,9
2021-04-09,25900,486,128,5
2021-04-10,25810,466,119,6
