***************** Day chosed by user to be read from total covid19 file *****************
2020-11-04 10097267 65300 2337 325 59 
***************** Day chosed by user to be read from total covid19 file *****************
2020-11-04 10097267 65300 2337 325 59 
***************** Day chosed by user to be read from total covid19 file *****************
2020-11-04 10097267 65300 2337 325 59 
***************** Day chosed by user to be read from total covid19 file *****************
2020-11-04 10097267 65300 2337 325 59 
